Homework 9
…
Now let’s use the same 10 folds as above to determine the “best” value of the penalty parameter.

#Fitting LASSO model for each of 100 penalty values
lasso_fit<-lasso_wkf |>
  tune_grid(resamples = folds,
            grid = grid_regular(penalty(c(-10,2)), levels = 100),
            metrics = metric_set(rmse)) 

The chunk below extracts cross-validated RMSE values for each lambda/penalty value.

#Extracting fit metrics
lasso_fit |> collect_metrics() |>
  arrange(mean)

# A tibble: 100 × 7
        penalty .metric .estimator     mean     n  std_err .config          
          <dbl> <chr>   <chr>         <dbl> <int>    <dbl> <chr>            
 1 1       e-10 rmse    standard   4326.752    10 86.37435 pre0_mod001_post0
 2 1.321941e-10 rmse    standard   4326.752    10 86.37435 pre0_mod002_post0
 3 1.747528e-10 rmse    standard   4326.752    10 86.37435 pre0_mod003_post0
 4 2.310130e-10 rmse    standard   4326.752    10 86.37435 pre0_mod004_post0
 5 3.053856e-10 rmse    standard   4326.752    10 86.37435 pre0_mod005_post0
 6 4.037017e-10 rmse    standard   4326.752    10 86.37435 pre0_mod006_post0
 7 5.336699e-10 rmse    standard   4326.752    10 86.37435 pre0_mod007_post0
 8 7.054802e-10 rmse    standard   4326.752    10 86.37435 pre0_mod008_post0
 9 9.326033e-10 rmse    standard   4326.752    10 86.37435 pre0_mod009_post0
10 1.232847e- 9 rmse    standard   4326.752    10 86.37435 pre0_mod010_post0
# ℹ 90 more rows
…
Let’s fit the model across a grid of tree depth and cost complexity values to see which has the best fit characteristics.

#Fitting regression tree model across grid of depth and complexity values
tree_fit<-tree_wkf |>
  tune_grid(resamples = folds,
            grid = grid_regular(tree_depth(), cost_complexity(), levels = c(10,10)),
            metrics = metric_set(rmse)) 

Now that we’ve fit the \(10x10=100\) regression tree models, let’s see which has the lowest RMSE.

#Sorting models by RMSE
tree_fit |> collect_metrics() |>
  arrange(mean)

# A tibble: 100 × 8
   cost_complexity tree_depth .metric .estimator     mean     n  std_err .config
             <dbl>      <int> <chr>   <chr>         <dbl> <int>    <dbl> <chr>  
 1    0.0001                5 rmse    standard   4092.537    10 162.6993 pre0_m…
 2    0.0000000001          5 rmse    standard   4093.023    10 162.6976 pre0_m…
 3    0.000000001           5 rmse    standard   4093.023    10 162.6976 pre0_m…
 4    0.00000001            5 rmse    standard   4093.023    10 162.6976 pre0_m…
 5    0.0000001             5 rmse    standard   4093.023    10 162.6976 pre0_m…
 6    0.000001              5 rmse    standard   4093.023    10 162.6976 pre0_m…
 7    0.00001               5 rmse    standard   4093.023    10 162.6976 pre0_m…
 8    0.0001                7 rmse    standard   4115.322    10 212.5100 pre0_m…
 9    0.00001               7 rmse    standard   4121.130    10 213.6370 pre0_m…
10    0.0000000001          7 rmse    standard   4121.772    10 213.7138 pre0_m…
# ℹ 90 more rows
…
#Fitting bagged tree model across grid of depth and complexity values
bag_fit<-bag_wkf |>
  tune_grid(resamples = folds,
            grid = grid_regular(tree_depth(), cost_complexity(), levels = c(10,10)),
            metrics = metric_set(rmse)) 

Now that we have fit the models, let’s see which has the best cross-validated RMSE.

#Sorting models by RMSE
bag_fit |> collect_metrics() |>
  arrange(mean)

# A tibble: 100 × 8
   cost_complexity tree_depth .metric .estimator     mean     n  std_err .config
             <dbl>      <int> <chr>   <chr>         <dbl> <int>    <dbl> <chr>  
 1    0.00000001           13 rmse    standard   2903.273    10 123.0814 pre0_m…
 2    0.0000000001         10 rmse    standard   2905.642    10 111.4533 pre0_m…
 3    0.0000001            11 rmse    standard   2911.194    10 149.7095 pre0_m…
 4    0.00001               7 rmse    standard   2915.458    10 151.7954 pre0_m…
 5    0.000000001          10 rmse    standard   2916.825    10 142.2611 pre0_m…
 6    0.00000001            7 rmse    standard   2964.744    10 151.6287 pre0_m…
 7    0.0000000001          8 rmse    standard   2968.131    10 151.2367 pre0_m…
 8    0.0001               13 rmse    standard   2982.908    10 181.7075 pre0_m…
 9    0.0001                8 rmse    standard   2985.039    10 141.9807 pre0_m…
10    0.000000001           7 rmse    standard   2985.552    10 177.6839 pre0_m…
# ℹ 90 more rows
…
